<?xml version="1.0" encoding="UTF-8" standalone="no"?>
<!-- Created with Inkscape (http://www.inkscape.org/) -->

<svg
   xmlns:dc="http://purl.org/dc/elements/1.1/"
   xmlns:cc="http://creativecommons.org/ns#"
   xmlns:rdf="http://www.w3.org/1999/02/22-rdf-syntax-ns#"
   xmlns:svg="http://www.w3.org/2000/svg"
   xmlns="http://www.w3.org/2000/svg"
   xmlns:xlink="http://www.w3.org/1999/xlink"
   xmlns:sodipodi="http://sodipodi.sourceforge.net/DTD/sodipodi-0.dtd"
   xmlns:inkscape="http://www.inkscape.org/namespaces/inkscape"
   width="24"
   height="24"
   id="svg2"
   version="1.1"
   inkscape:version="0.48.5 r10040"
   sodipodi:docname="crown-24px.svg"
   inkscape:export-filename="/mnt/sharedntfs/Programming/NautDrafter/nautdrafter-gradle/NautDrafter/resources/assets/images/icons/crown-blue-24px.png"
   inkscape:export-xdpi="90"
   inkscape:export-ydpi="90">
  <defs
     id="defs4">
    <linearGradient
       id="linearGradient8683">
      <stop
         style="stop-color:#f2bc00;stop-opacity:1"
         offset="0"
         id="stop8685" />
      <stop
         style="stop-color:#fff3c7;stop-opacity:1"
         offset="1"
         id="stop8687" />
    </linearGradient>
    <linearGradient
       id="linearGradient6214"
       inkscape:collect="always">
      <stop
         id="stop6216"
         offset="0"
         style="stop-color:#efba03;stop-opacity:1" />
      <stop
         id="stop6218"
         offset="1"
         style="stop-color:#fee78c;stop-opacity:1" />
    </linearGradient>
    <linearGradient
       inkscape:collect="always"
       id="linearGradient5481">
      <stop
         style="stop-color:#4e0508;stop-opacity:1"
         offset="0"
         id="stop5483" />
      <stop
         style="stop-color:#9c1200;stop-opacity:1"
         offset="1"
         id="stop5485" />
    </linearGradient>
    <filter
       inkscape:collect="always"
       id="filter4325"
       x="-0.12342857"
       width="1.246857"
       y="-0.1728"
       height="1.3456"
       color-interpolation-filters="sRGB">
      <feGaussianBlur
         inkscape:collect="always"
         stdDeviation="0.72"
         id="feGaussianBlur4327" />
    </filter>
    <filter
       inkscape:collect="always"
       id="filter4643"
       x="-0.40114287"
       width="1.8022857"
       y="-0.56160003"
       height="2.1231999"
       color-interpolation-filters="sRGB">
      <feGaussianBlur
         inkscape:collect="always"
         stdDeviation="2.34"
         id="feGaussianBlur4645" />
    </filter>
    <linearGradient
       inkscape:collect="always"
       xlink:href="#linearGradient5481"
       id="linearGradient6180"
       gradientUnits="userSpaceOnUse"
       gradientTransform="translate(1.767767,1.625)"
       x1="-158.60463"
       y1="315.72766"
       x2="-158.60463"
       y2="296.4278" />
    <linearGradient
       inkscape:collect="always"
       xlink:href="#linearGradient6214"
       id="linearGradient7128"
       gradientUnits="userSpaceOnUse"
       x1="-197.20895"
       y1="264.75601"
       x2="-197.20895"
       y2="255.31769" />
    <linearGradient
       inkscape:collect="always"
       xlink:href="#linearGradient6214"
       id="linearGradient8362"
       gradientUnits="userSpaceOnUse"
       x1="-197.77145"
       y1="265.44351"
       x2="-197.77145"
       y2="260.60648" />
    <linearGradient
       inkscape:collect="always"
       xlink:href="#linearGradient6214"
       id="linearGradient8622"
       gradientUnits="userSpaceOnUse"
       x1="-198.39645"
       y1="265.82303"
       x2="-198.39645"
       y2="261.91583" />
    <linearGradient
       inkscape:collect="always"
       xlink:href="#linearGradient8683"
       id="linearGradient8793"
       gradientUnits="userSpaceOnUse"
       x1="-197.95895"
       y1="264.4913"
       x2="-197.95895"
       y2="255.81602" />
    <linearGradient
       inkscape:collect="always"
       xlink:href="#linearGradient8683"
       id="linearGradient8795"
       gradientUnits="userSpaceOnUse"
       gradientTransform="translate(1.767767,1.625)"
       x1="-148.88191"
       y1="316.64532"
       x2="-148.88191"
       y2="296.51581" />
    <filter
       inkscape:collect="always"
       id="filter8949"
       x="-0.25714287"
       width="1.5142857"
       y="-0.36000001"
       height="1.72"
       color-interpolation-filters="sRGB">
      <feGaussianBlur
         inkscape:collect="always"
         stdDeviation="1.5"
         id="feGaussianBlur8951" />
    </filter>
    <linearGradient
       inkscape:collect="always"
       xlink:href="#linearGradient6214"
       id="linearGradient8963"
       gradientUnits="userSpaceOnUse"
       x1="-197.20895"
       y1="264.75601"
       x2="-197.20895"
       y2="255.31769" />
    <linearGradient
       id="linearGradient8683-8">
      <stop
         style="stop-color:#00b6f2;stop-opacity:1;"
         offset="0"
         id="stop8685-2" />
      <stop
         style="stop-color:#c7f1ff;stop-opacity:1;"
         offset="1"
         id="stop8687-4" />
    </linearGradient>
    <linearGradient
       id="linearGradient9035">
      <stop
         style="stop-color:#00b6f2;stop-opacity:1;"
         offset="0"
         id="stop9037" />
      <stop
         style="stop-color:#c7f1ff;stop-opacity:1;"
         offset="1"
         id="stop9039" />
    </linearGradient>
    <linearGradient
       id="linearGradient9042">
      <stop
         style="stop-color:#00b6f2;stop-opacity:1;"
         offset="0"
         id="stop9044" />
      <stop
         style="stop-color:#c7f1ff;stop-opacity:1;"
         offset="1"
         id="stop9046" />
    </linearGradient>
    <linearGradient
       inkscape:collect="always"
       xlink:href="#linearGradient9014"
       id="linearGradient8953-5"
       gradientUnits="userSpaceOnUse"
       gradientTransform="translate(3.1427308,0.25000032)"
       x1="-158.60463"
       y1="315.72766"
       x2="-158.60463"
       y2="296.4278" />
    <linearGradient
       id="linearGradient9014"
       inkscape:collect="always">
      <stop
         id="stop9016"
         offset="0"
         style="stop-color:#05334e;stop-opacity:1" />
      <stop
         id="stop9018"
         offset="1"
         style="stop-color:#00739c;stop-opacity:1" />
    </linearGradient>
    <linearGradient
       inkscape:collect="always"
       xlink:href="#linearGradient8683-8"
       id="linearGradient8955-1"
       gradientUnits="userSpaceOnUse"
       gradientTransform="translate(3.1427308,0.25000032)"
       x1="-148.88191"
       y1="316.64532"
       x2="-148.88191"
       y2="296.51581" />
    <linearGradient
       id="linearGradient9053">
      <stop
         style="stop-color:#00b6f2;stop-opacity:1;"
         offset="0"
         id="stop9055" />
      <stop
         style="stop-color:#c7f1ff;stop-opacity:1;"
         offset="1"
         id="stop9057" />
    </linearGradient>
    <linearGradient
       inkscape:collect="always"
       xlink:href="#linearGradient6214"
       id="linearGradient9128"
       gradientUnits="userSpaceOnUse"
       x1="-197.20895"
       y1="264.75601"
       x2="-197.20895"
       y2="255.31769" />
    <linearGradient
       inkscape:collect="always"
       xlink:href="#linearGradient6214"
       id="linearGradient9164"
       gradientUnits="userSpaceOnUse"
       x1="-197.20895"
       y1="264.75601"
       x2="-197.20895"
       y2="255.31769" />
    <linearGradient
       inkscape:collect="always"
       xlink:href="#linearGradient8683-8"
       id="linearGradient9174"
       gradientUnits="userSpaceOnUse"
       gradientTransform="translate(70.164176,42.856169)"
       x1="-197.77145"
       y1="265.44351"
       x2="-197.77145"
       y2="260.60648" />
    <linearGradient
       inkscape:collect="always"
       xlink:href="#linearGradient8683-8"
       id="linearGradient9177"
       gradientUnits="userSpaceOnUse"
       gradientTransform="translate(70.164176,42.856169)"
       x1="-198.39645"
       y1="265.82303"
       x2="-198.39645"
       y2="261.91583" />
    <linearGradient
       inkscape:collect="always"
       xlink:href="#linearGradient8683-8"
       id="linearGradient9180"
       gradientUnits="userSpaceOnUse"
       gradientTransform="translate(70.164176,42.856169)"
       x1="-197.95895"
       y1="264.4913"
       x2="-197.95895"
       y2="255.81602" />
    <linearGradient
       inkscape:collect="always"
       xlink:href="#linearGradient9014"
       id="linearGradient9183"
       gradientUnits="userSpaceOnUse"
       gradientTransform="translate(24.923066,-4.9445397)"
       x1="-158.60463"
       y1="315.72766"
       x2="-158.60463"
       y2="296.4278" />
    <linearGradient
       inkscape:collect="always"
       xlink:href="#linearGradient8683-8"
       id="linearGradient9185"
       gradientUnits="userSpaceOnUse"
       gradientTransform="translate(24.923066,-4.9445397)"
       x1="-148.88191"
       y1="316.64532"
       x2="-148.88191"
       y2="296.51581" />
    <linearGradient
       inkscape:collect="always"
       xlink:href="#linearGradient6214"
       id="linearGradient9188"
       gradientUnits="userSpaceOnUse"
       gradientTransform="translate(45.16418,42.85617)"
       x1="-197.77145"
       y1="265.44351"
       x2="-197.77145"
       y2="260.60648" />
    <linearGradient
       inkscape:collect="always"
       xlink:href="#linearGradient6214"
       id="linearGradient9191"
       gradientUnits="userSpaceOnUse"
       gradientTransform="translate(45.16418,42.85617)"
       x1="-198.39645"
       y1="265.82303"
       x2="-198.39645"
       y2="261.91583" />
    <linearGradient
       inkscape:collect="always"
       xlink:href="#linearGradient8683"
       id="linearGradient9194"
       gradientUnits="userSpaceOnUse"
       gradientTransform="translate(45.16418,42.85617)"
       x1="-197.95895"
       y1="264.4913"
       x2="-197.95895"
       y2="255.81602" />
    <linearGradient
       inkscape:collect="always"
       xlink:href="#linearGradient5481"
       id="linearGradient9197"
       gradientUnits="userSpaceOnUse"
       gradientTransform="translate(-0.0769391,-4.9445434)"
       x1="-158.60463"
       y1="315.72766"
       x2="-158.60463"
       y2="296.4278" />
    <linearGradient
       inkscape:collect="always"
       xlink:href="#linearGradient8683"
       id="linearGradient9199"
       gradientUnits="userSpaceOnUse"
       gradientTransform="translate(-0.0769391,-4.9445434)"
       x1="-148.88191"
       y1="316.64532"
       x2="-148.88191"
       y2="296.51581" />
    <linearGradient
       inkscape:collect="always"
       xlink:href="#linearGradient6214"
       id="linearGradient9204"
       gradientUnits="userSpaceOnUse"
       x1="-197.20895"
       y1="264.75601"
       x2="-197.20895"
       y2="255.31769" />
    <linearGradient
       inkscape:collect="always"
       xlink:href="#linearGradient5481"
       id="linearGradient9208"
       gradientUnits="userSpaceOnUse"
       gradientTransform="matrix(0.74074074,0,0,0.74074074,-41.427396,101.43429)"
       x1="-158.60463"
       y1="315.72766"
       x2="-158.60463"
       y2="296.4278" />
    <linearGradient
       inkscape:collect="always"
       xlink:href="#linearGradient8683"
       id="linearGradient9210"
       gradientUnits="userSpaceOnUse"
       gradientTransform="matrix(0.74074074,0,0,0.74074074,-41.427396,101.43429)"
       x1="-148.88191"
       y1="316.64532"
       x2="-148.88191"
       y2="296.51581" />
    <linearGradient
       inkscape:collect="always"
       xlink:href="#linearGradient8683"
       id="linearGradient9214"
       gradientUnits="userSpaceOnUse"
       gradientTransform="matrix(0.71428577,0,0,0.71428577,-13.127651,144.07087)"
       x1="-197.95895"
       y1="264.4913"
       x2="-197.95895"
       y2="255.81602" />
    <linearGradient
       inkscape:collect="always"
       xlink:href="#linearGradient8683"
       id="linearGradient9637"
       gradientUnits="userSpaceOnUse"
       gradientTransform="matrix(0.71428577,0,0,0.71428577,-13.127651,144.07087)"
       x1="-197.95895"
       y1="264.4913"
       x2="-197.95895"
       y2="255.81602" />
    <linearGradient
       inkscape:collect="always"
       xlink:href="#linearGradient5481"
       id="linearGradient9643"
       gradientUnits="userSpaceOnUse"
       gradientTransform="matrix(0.74074074,0,0,0.74074074,-14.427396,102.43429)"
       x1="-158.60463"
       y1="315.72766"
       x2="-158.60463"
       y2="296.4278" />
    <linearGradient
       inkscape:collect="always"
       xlink:href="#linearGradient8683"
       id="linearGradient9645"
       gradientUnits="userSpaceOnUse"
       gradientTransform="matrix(0.74074074,0,0,0.74074074,-14.427396,102.43429)"
       x1="-148.88191"
       y1="316.64532"
       x2="-148.88191"
       y2="296.51581" />
    <linearGradient
       inkscape:collect="always"
       xlink:href="#linearGradient8683"
       id="linearGradient9647"
       gradientUnits="userSpaceOnUse"
       gradientTransform="matrix(0.71428577,0,0,0.71428577,13.872349,145.07087)"
       x1="-197.95895"
       y1="264.4913"
       x2="-197.95895"
       y2="255.81602" />
    <linearGradient
       inkscape:collect="always"
       xlink:href="#linearGradient5481"
       id="linearGradient9649"
       gradientUnits="userSpaceOnUse"
       gradientTransform="matrix(0.74074074,0,0,0.74074074,-41.427396,101.43429)"
       x1="-158.60463"
       y1="315.72766"
       x2="-158.60463"
       y2="296.4278" />
    <linearGradient
       inkscape:collect="always"
       xlink:href="#linearGradient8683"
       id="linearGradient9651"
       gradientUnits="userSpaceOnUse"
       gradientTransform="matrix(0.74074074,0,0,0.74074074,-41.427396,101.43429)"
       x1="-148.88191"
       y1="316.64532"
       x2="-148.88191"
       y2="296.51581" />
    <linearGradient
       inkscape:collect="always"
       xlink:href="#linearGradient8683"
       id="linearGradient9654"
       gradientUnits="userSpaceOnUse"
       gradientTransform="matrix(0.71428577,0,0,0.71428577,13.872349,145.07087)"
       x1="-197.95895"
       y1="264.4913"
       x2="-197.95895"
       y2="255.81602" />
    <linearGradient
       inkscape:collect="always"
       xlink:href="#linearGradient5481"
       id="linearGradient9657"
       gradientUnits="userSpaceOnUse"
       gradientTransform="matrix(0.74074074,0,0,0.74074074,-14.427396,102.43429)"
       x1="-158.60463"
       y1="315.72766"
       x2="-158.60463"
       y2="296.4278" />
    <linearGradient
       inkscape:collect="always"
       xlink:href="#linearGradient8683"
       id="linearGradient9659"
       gradientUnits="userSpaceOnUse"
       gradientTransform="matrix(0.74074074,0,0,0.74074074,-14.427396,102.43429)"
       x1="-148.88191"
       y1="316.64532"
       x2="-148.88191"
       y2="296.51581" />
    <linearGradient
       inkscape:collect="always"
       xlink:href="#linearGradient8683"
       id="linearGradient9662"
       gradientUnits="userSpaceOnUse"
       gradientTransform="matrix(0.71428577,0,0,0.71428577,-13.127651,144.07087)"
       x1="-197.95895"
       y1="264.4913"
       x2="-197.95895"
       y2="255.81602" />
    <linearGradient
       inkscape:collect="always"
       xlink:href="#linearGradient5481"
       id="linearGradient9665"
       gradientUnits="userSpaceOnUse"
       gradientTransform="matrix(0.74074074,0,0,0.74074074,-41.427396,101.43429)"
       x1="-158.60463"
       y1="315.72766"
       x2="-158.60463"
       y2="296.4278" />
    <linearGradient
       inkscape:collect="always"
       xlink:href="#linearGradient8683"
       id="linearGradient9667"
       gradientUnits="userSpaceOnUse"
       gradientTransform="matrix(0.74074074,0,0,0.74074074,-41.427396,101.43429)"
       x1="-148.88191"
       y1="316.64532"
       x2="-148.88191"
       y2="296.51581" />
    <linearGradient
       inkscape:collect="always"
       xlink:href="#linearGradient9014"
       id="linearGradient9677"
       gradientUnits="userSpaceOnUse"
       gradientTransform="matrix(0.74074074,0,0,0.74074074,-14.427396,102.43429)"
       x1="-158.60463"
       y1="315.72766"
       x2="-158.60463"
       y2="296.4278" />
    <linearGradient
       inkscape:collect="always"
       xlink:href="#linearGradient8683-8"
       id="linearGradient9679"
       gradientUnits="userSpaceOnUse"
       gradientTransform="matrix(0.74074074,0,0,0.74074074,-14.427396,102.43429)"
       x1="-148.88191"
       y1="316.64532"
       x2="-148.88191"
       y2="296.51581" />
    <linearGradient
       inkscape:collect="always"
       xlink:href="#linearGradient8683-8"
       id="linearGradient9681"
       gradientUnits="userSpaceOnUse"
       gradientTransform="matrix(0.71428577,0,0,0.71428577,13.872349,145.07087)"
       x1="-197.95895"
       y1="264.4913"
       x2="-197.95895"
       y2="255.81602" />
  </defs>
  <sodipodi:namedview
     id="base"
     pagecolor="#ffffff"
     bordercolor="#666666"
     borderopacity="1.0"
     inkscape:pageopacity="0.0"
     inkscape:pageshadow="2"
     inkscape:zoom="8"
     inkscape:cx="13.848185"
     inkscape:cy="7.375104"
     inkscape:document-units="px"
     inkscape:current-layer="layer1"
     showgrid="true"
     inkscape:snap-global="false"
     inkscape:window-width="1478"
     inkscape:window-height="1059"
     inkscape:window-x="0"
     inkscape:window-y="0"
     inkscape:window-maximized="0"
     fit-margin-top="0"
     fit-margin-left="0"
     fit-margin-right="0"
     fit-margin-bottom="0">
    <inkscape:grid
       type="xygrid"
       id="grid8965"
       empspacing="5"
       visible="true"
       enabled="true"
       snapvisiblegridlinesonly="true" />
  </sodipodi:namedview>
  <metadata
     id="metadata7">
    <rdf:RDF>
      <cc:Work
         rdf:about="">
        <dc:format>image/svg+xml</dc:format>
        <dc:type
           rdf:resource="http://purl.org/dc/dcmitype/StillImage" />
        <dc:title></dc:title>
      </cc:Work>
    </rdf:RDF>
  </metadata>
  <g
     inkscape:label="Layer 1"
     inkscape:groupmode="layer"
     id="layer1"
     transform="translate(163.85727,-289.23719)">
    <rect
       ry="10.125"
       rx="10.125"
       y="291.11218"
       x="-161.9823"
       height="20.25"
       width="20.25"
       id="rect4651"
       style="fill:url(#linearGradient9197);fill-opacity:1;stroke:url(#linearGradient9199);stroke-opacity:1" />
    <path
       style="fill:url(#linearGradient9194);fill-opacity:1;stroke:none"
       d="m -156.85727,304.23719 c -1,0 -2,-6 -2,-6 1,0 4,2 4,2 l 3,-4 3,4 c 0,0 3,-2 4,-2 0,0 -1,6 -2,6 -1,0 -9,0 -10,0 z"
       id="path3777"
       inkscape:connector-curvature="0"
       sodipodi:nodetypes="scccccss" />
    <path
       style="fill:url(#linearGradient9191);fill-opacity:1;stroke:none"
       d="m -156.85727,305.23719 10,0 -1,1 -8,0 z"
       id="rect4207"
       inkscape:connector-curvature="0"
       sodipodi:nodetypes="ccccc" />
    <path
       sodipodi:nodetypes="ccccc"
       inkscape:connector-curvature="0"
       id="path4214"
       d="m -157.85727,305.23719 12,0 -1.2,1 -9.6,0 z"
       style="opacity:0.33944959;fill:url(#linearGradient9188);fill-opacity:1;stroke:none" />
    <rect
       style="fill:url(#linearGradient9183);fill-opacity:1;stroke:url(#linearGradient9185);stroke-opacity:1"
       id="rect4651-4"
       width="20.25"
       height="20.25"
       x="-136.9823"
       y="291.11218"
       rx="10.125"
       ry="10.125" />
    <path
       style="fill:url(#linearGradient9180);fill-opacity:1;stroke:none"
       d="m -131.85727,304.23719 c -1,0 -2,-6 -2,-6 1,0 4,2 4,2 l 3,-4 3,4 c 0,0 3,-2 4,-2 0,0 -1,6 -2,6 -1,0 -9,0 -10,0 z"
       id="path3777-9"
       inkscape:connector-curvature="0"
       sodipodi:nodetypes="scccccss" />
    <path
       style="fill:url(#linearGradient9177);fill-opacity:1;stroke:none"
       d="m -131.85727,305.23719 10,0 -1,1 -8,0 z"
       id="rect4207-5"
       inkscape:connector-curvature="0"
       sodipodi:nodetypes="ccccc" />
    <path
       sodipodi:nodetypes="ccccc"
       inkscape:connector-curvature="0"
       id="path4214-5"
       d="m -132.85727,305.23719 12,0 -1.2,1 -9.6,0 z"
       style="opacity:0.33944959;fill:url(#linearGradient9174);fill-opacity:1;stroke:none" />
    <g
       id="g9673"
       inkscape:export-filename="/mnt/sharedntfs/Programming/NautDrafter/nautdrafter-gradle/NautDrafter/resources/assets/images/icons/crown-red-16px.png"
       inkscape:export-xdpi="90"
       inkscape:export-ydpi="90">
      <rect
         ry="7.5"
         rx="7.5"
         y="320.73575"
         x="-161.35728"
         height="15"
         width="15"
         id="use9124"
         style="fill:url(#linearGradient9665);fill-opacity:1;stroke:url(#linearGradient9667);stroke-width:0.99999994;stroke-miterlimit:4;stroke-opacity:1;stroke-dasharray:none" />
      <path
         style="fill:url(#linearGradient9662);fill-opacity:1;stroke:none"
         d="m -157.4287,331.05733 c -0.71428,0 -1.42857,-4.82014 -1.42857,-4.82014 0.71429,0 2.85714,1.67728 2.85714,1.67728 l 2.14286,-3.67728 2.14286,3.67728 c 0,0 2.14286,-1.67728 2.85714,-1.67728 0,0 -0.71428,4.82014 -1.42857,4.82014 -0.71429,0 -6.42857,0 -7.14286,0 z"
         id="use9126"
         inkscape:connector-curvature="0"
         sodipodi:nodetypes="scccccss" />
    </g>
    <g
       id="g9669"
       transform="translate(0,-1)"
       inkscape:export-filename="/mnt/sharedntfs/Programming/NautDrafter/nautdrafter-gradle/NautDrafter/resources/assets/images/icons/crown-blue-16px.png"
       inkscape:export-xdpi="90"
       inkscape:export-ydpi="90">
      <rect
         style="fill:url(#linearGradient9677);fill-opacity:1.0;stroke:url(#linearGradient9679);stroke-width:0.99999994000000003;stroke-miterlimit:4;stroke-opacity:1;stroke-dasharray:none"
         id="rect9639"
         width="15"
         height="15"
         x="-134.35728"
         y="321.73575"
         rx="7.5"
         ry="7.5" />
      <path
         sodipodi:nodetypes="scccccss"
         inkscape:connector-curvature="0"
         id="path9641"
         d="m -130.4287,332.05733 c -0.71428,0 -1.42857,-4.82014 -1.42857,-4.82014 0.71429,0 2.85714,1.67728 2.85714,1.67728 l 2.14286,-3.67728 2.14286,3.67728 c 0,0 2.14286,-1.67728 2.85714,-1.67728 0,0 -0.71428,4.82014 -1.42857,4.82014 -0.71429,0 -6.42857,0 -7.14286,0 z"
         style="fill:url(#linearGradient9681);fill-opacity:1.0;stroke:none" />
    </g>
    <text
       xml:space="preserve"
       style="font-size:8.13968277px;font-style:normal;font-variant:normal;font-weight:normal;font-stretch:normal;line-height:125%;letter-spacing:0px;word-spacing:0px;fill:#000000;fill-opacity:1;stroke:none;font-family:FontAwesome;-inkscape-font-specification:FontAwesome"
       x="-197.93974"
       y="302.00992"
       id="text9683"
       sodipodi:linespacing="125%"><tspan
         sodipodi:role="line"
         id="tspan9685"
         x="-197.93974"
         y="302.00992">24px:</tspan></text>
    <text
       sodipodi:linespacing="125%"
       id="text9687"
       y="328.88492"
       x="-197.93974"
       style="font-size:8.13968277px;font-style:normal;font-variant:normal;font-weight:normal;font-stretch:normal;line-height:125%;letter-spacing:0px;word-spacing:0px;fill:#000000;fill-opacity:1;stroke:none;font-family:FontAwesome;-inkscape-font-specification:FontAwesome"
       xml:space="preserve"><tspan
         y="328.88492"
         x="-197.93974"
         id="tspan9689"
         sodipodi:role="line">16px:</tspan></text>
  </g>
</svg>
