<?xml version="1.0" encoding="UTF-8" standalone="no"?>
<!-- Created with Inkscape (http://www.inkscape.org/) -->

<svg
   xmlns:dc="http://purl.org/dc/elements/1.1/"
   xmlns:cc="http://creativecommons.org/ns#"
   xmlns:rdf="http://www.w3.org/1999/02/22-rdf-syntax-ns#"
   xmlns:svg="http://www.w3.org/2000/svg"
   xmlns="http://www.w3.org/2000/svg"
   xmlns:sodipodi="http://sodipodi.sourceforge.net/DTD/sodipodi-0.dtd"
   xmlns:inkscape="http://www.inkscape.org/namespaces/inkscape"
   width="16"
   height="16"
   id="svg2"
   version="1.1"
   inkscape:version="0.48.5 r10040"
   sodipodi:docname="external-16px.svg"
   inkscape:export-filename="/mnt/sharedntfs/Programming/NautDrafter/nautdrafter-gradle/NautDrafter/resources/assets/images/icons/external-16px.png"
   inkscape:export-xdpi="90"
   inkscape:export-ydpi="90">
  <defs
     id="defs4">
    <clipPath
       clipPathUnits="userSpaceOnUse"
       id="clipPath4003">
      <path
         style="fill:#000000;fill-opacity:1;stroke:none"
         d="m 0,1037.3622 0,14 15,0 0,-10 -4,0 0,-4 z"
         id="path4005"
         inkscape:connector-curvature="0"
         sodipodi:nodetypes="ccccccc" />
    </clipPath>
    <clipPath
       clipPathUnits="userSpaceOnUse"
       id="clipPath4028">
      <path
         style="fill:#000000;fill-opacity:1;stroke:none"
         d="m 0,1037.3622 0,14 15,0 0,-8.8645 -5.1292351,0 0,-5.1355 z"
         id="path4030"
         inkscape:connector-curvature="0"
         sodipodi:nodetypes="ccccccc" />
    </clipPath>
    <clipPath
       clipPathUnits="userSpaceOnUse"
       id="clipPath4061">
      <path
         sodipodi:nodetypes="ccccccc"
         inkscape:connector-curvature="0"
         id="path4063"
         d="m 0,1037.3622 0,14 15,0 0.07324,-9.7304 -4.262157,-0.06 -0.07324,-4.2696 z"
         style="fill:#000000;fill-opacity:1;stroke:none" />
    </clipPath>
  </defs>
  <sodipodi:namedview
     id="base"
     pagecolor="#ffffff"
     bordercolor="#666666"
     borderopacity="1.0"
     inkscape:pageopacity="0.0"
     inkscape:pageshadow="2"
     inkscape:zoom="22.627417"
     inkscape:cx="9.4701209"
     inkscape:cy="6.5110973"
     inkscape:document-units="px"
     inkscape:current-layer="layer1"
     showgrid="true"
     inkscape:snap-global="false"
     inkscape:window-width="1918"
     inkscape:window-height="1059"
     inkscape:window-x="0"
     inkscape:window-y="0"
     inkscape:window-maximized="0">
    <inkscape:grid
       type="xygrid"
       id="grid3217"
       empspacing="5"
       visible="true"
       enabled="true"
       snapvisiblegridlinesonly="true" />
  </sodipodi:namedview>
  <metadata
     id="metadata7">
    <rdf:RDF>
      <cc:Work
         rdf:about="">
        <dc:format>image/svg+xml</dc:format>
        <dc:type
           rdf:resource="http://purl.org/dc/dcmitype/StillImage" />
      </cc:Work>
    </rdf:RDF>
  </metadata>
  <g
     inkscape:label="Layer 1"
     inkscape:groupmode="layer"
     id="layer1"
     transform="translate(0,-1036.3622)">
    <path
       style="fill:#000000;fill-opacity:1;stroke:none"
       d="m 8.5,1044.8622 5,-5 -1,-1 -5,5 z"
       id="path3991"
       inkscape:connector-curvature="0"
       sodipodi:nodetypes="ccccc" />
    <path
       style="fill:#000000;fill-opacity:1;stroke:none"
       d="m 9,1037.3622 6,0 0,6 z"
       id="path3993"
       inkscape:connector-curvature="0"
       sodipodi:nodetypes="cccc" />
    <g
       id="g3999"
       clip-path="url(#clipPath4061)"
       transform="matrix(1.1532981,0,0,1.1547704,-3.3839344,-159.48332)">
      <rect
         ry="0.51417148"
         rx="0.51417148"
         y="1038.5992"
         x="5.1018333"
         height="8.661377"
         width="8.6695461"
         id="rect3219"
         style="fill:none;stroke:#000000;stroke-width:0.86652559;stroke-linecap:round;stroke-linejoin:round;stroke-miterlimit:4;stroke-opacity:1;stroke-dasharray:none;stroke-dashoffset:0" />
      <rect
         ry="1"
         rx="1.5004177"
         transform="translate(0,1036.3622)"
         y="3"
         x="-3"
         height="1"
         width="1"
         id="rect3995"
         style="fill:#000000;fill-opacity:1;stroke:#000000;stroke-width:0.86652559;stroke-linecap:round;stroke-linejoin:round;stroke-miterlimit:4;stroke-opacity:1;stroke-dasharray:none;stroke-dashoffset:0" />
    </g>
    <path
       style="fill:none;stroke:none"
       d="m 7.0035618,1045.3682 0,-1.1548 1.1532982,0 0,-1.1548 1.153299,0 0,-1.1547 1.153297,0 0,-1.1548 1.153299,0 0,-1.1547 1.153298,0 0,-1.1548 1.153298,0 0,1.1548 -1.153298,0 0,1.1547 -1.153298,0 0,1.1548 -1.153299,0 0,1.1547 -1.153297,0 0,1.1548 -1.153299,0 0,1.1548 z"
       id="path4007"
       inkscape:connector-curvature="0" />
    <path
       sodipodi:nodetypes="cc"
       inkscape:connector-curvature="0"
       id="path4047"
       d="m 27,1045.3622 8.049492,-8.0489"
       style="fill:none;stroke:#000000;stroke-width:0.99999994px;stroke-linecap:butt;stroke-linejoin:miter;stroke-opacity:1" />
    <path
       sodipodi:nodetypes="ccc"
       inkscape:connector-curvature="0"
       id="path4049"
       d="m 29,1036.8622 6.499999,0 0.01563,6.5"
       style="fill:none;stroke:#000000;stroke-width:0.99999994px;stroke-linecap:butt;stroke-linejoin:miter;stroke-opacity:1" />
    <g
       transform="matrix(1.1532981,0,0,1.1547704,17.616066,-160.48332)"
       clip-path="url(#clipPath4028)"
       id="g4051">
      <rect
         style="fill:none;stroke:#000000;stroke-width:0.86652559;stroke-linecap:round;stroke-linejoin:round;stroke-miterlimit:4;stroke-opacity:1;stroke-dasharray:none;stroke-dashoffset:0"
         id="rect4053"
         width="10.402069"
         height="10.393914"
         x="2.5022321"
         y="1039.4652"
         rx="1.299379"
         ry="1.299379" />
      <rect
         style="fill:#000000;fill-opacity:1;stroke:#000000;stroke-width:0.86652559;stroke-linecap:round;stroke-linejoin:round;stroke-miterlimit:4;stroke-opacity:1;stroke-dasharray:none;stroke-dashoffset:0"
         id="rect4055"
         width="1"
         height="1"
         x="-3"
         y="3"
         transform="translate(0,1036.3622)"
         rx="1.5004177"
         ry="1" />
    </g>
  </g>
</svg>
